[{
    "Développement Frontend": ["HTML5", "CSS3", "Javascript", "SASS", "Jquery", "Bootstrap 4", "Vuejs/Nuxtjs"],
    "Développement Backend": ["Nodejs", "Express", "JSON", "Firebase"],
    "Design": [ "Illustrator", "Photoshop", "Sketch", "InDesign", "Figma"],
    "Autres": ["After Effect", "Blender", "Premiere Pro", "Unity3D", "Resolume Avenue", "Arduino", "Touchdesigner", "Maxmsp"]
}]